{
  "project_info": {
    "project_number": "785257624218",
    "firebase_url": "https://bookmyparlour-eb330.firebaseio.com",
    "project_id": "bookmyparlour-eb330",
    "storage_bucket": "bookmyparlour-eb330.appspot.com"
  },
  "client": [
    {
      "client_info": {
        "mobilesdk_app_id": "1:785257624218:android:44d38d6d678954af",
        "android_client_info": {
          "package_name": "com.parlour.bookmyparlour"
        }
      },
      "oauth_client": [
        {
          "client_id": "785257624218-sjsrm81einkfs5c8uei7namvttsson5h.apps.googleusercontent.com",
          "client_type": 3
        }
      ],
      "api_key": [
        {
          "current_key": "AIzaSyB5J3P4fZpP2OzyifQuLpo-2FnIDhCAmVY"
        }
      ],
      "services": {
        "analytics_service": {
          "status": 1
        },
        "appinvite_service": {
          "status": 1,
          "other_platform_oauth_client": []
        },
        "ads_service": {
          "status": 2
        }
      }
    }
  ],
  "configuration_version": "1"
}